<?xml version="1.0" encoding="UTF-8"?>
<svg width="13px" height="1px" viewBox="0 0 13 1" version="1.1" xmlns="http://www.w3.org/2000/svg" xmlns:xlink="http://www.w3.org/1999/xlink">
    <!-- Generator: Sketch 47.1 (45422) - http://www.bohemiancoding.com/sketch -->
    <title>Group 7</title>
    <desc>Created with Sketch.</desc>
    <defs></defs>
    <g id="Page-1" stroke="none" stroke-width="1" fill="none" fill-rule="evenodd" stroke-linecap="square">
        <g id="Authors--expanded" transform="translate(-1301.000000, -703.000000)" stroke="#FFFFFF">
            <g id="Group-9" transform="translate(262.000000, 280.000000)">
                <g id="Group-2">
                    <g id="Group-3" transform="translate(28.000000, 400.000000)">
                        <g id="Group-7" transform="translate(1011.000000, 22.000000)">
                            <path d="M0.5,1.5 L11.545361,1.5" id="Line-2"></path>
                        </g>
                    </g>
                </g>
            </g>
        </g>
    </g>
</svg>