<?xml version="1.0" encoding="UTF-8"?>
<svg width="18px" height="18px" viewBox="0 0 18 18" version="1.1" xmlns="http://www.w3.org/2000/svg" xmlns:xlink="http://www.w3.org/1999/xlink">
    <!-- Generator: Sketch 47.1 (45422) - http://www.bohemiancoding.com/sketch -->
    <title>Fill 8</title>
    <desc>Created with Sketch.</desc>
    <defs></defs>
    <g id="Page-1" stroke="none" stroke-width="1" fill="none" fill-rule="evenodd">
        <g id="Authors--expanded" transform="translate(-631.000000, -869.000000)" fill="#000000">
            <g id="Group-9" transform="translate(262.000000, 280.000000)">
                <path d="M378.000643,599.287 C375.001286,599.287 369,600.787429 369,603.787 L369,607 L387,607 L387,603.787 C387,600.787429 381.001286,599.287 378.000643,599.287 M378.000643,589 C375.871652,589 374.143775,590.729286 374.143775,592.858429 C374.143775,594.987571 375.871652,596.715571 378.000643,596.715571 C380.130919,596.715571 381.84594,594.987571 381.84594,592.858429 C381.84594,590.729286 380.130919,589 378.000643,589" id="Fill-8"></path>
            </g>
        </g>
    </g>
</svg>