<?xml version="1.0" encoding="UTF-8"?>
<svg width="18px" height="16px" viewBox="0 0 18 16" version="1.1" xmlns="http://www.w3.org/2000/svg" xmlns:xlink="http://www.w3.org/1999/xlink">
    <!-- Generator: Sketch 47.1 (45422) - http://www.bohemiancoding.com/sketch -->
    <title>Path 972 + Line</title>
    <desc>Created with Sketch.</desc>
    <defs></defs>
    <g id="Page-1" stroke="none" stroke-width="1" fill="none" fill-rule="evenodd" stroke-linecap="round">
        <g id="Dashboard--expanded" transform="translate(-1327.000000, -1241.000000)" stroke-width="2" stroke="#000000">
            <g id="fav-shots" transform="translate(262.000000, 1242.000000)">
                <g id="Group-7" transform="translate(1006.000000, 0.000000)">
                    <g id="Path-972-+-Line" transform="translate(60.000000, 0.000000)">
                        <polyline id="Path-972" points="7.97691692 2.9315288e-09 14.6651595 6.55019574 7.97691692 13.3073584"></polyline>
                        <path d="M14.3671875,6 L0.207188129,6" id="Line"></path>
                    </g>
                </g>
            </g>
        </g>
    </g>
</svg>