<?xml version="1.0" encoding="UTF-8"?>
<svg width="19px" height="19px" viewBox="0 0 19 19" version="1.1" xmlns="http://www.w3.org/2000/svg" xmlns:xlink="http://www.w3.org/1999/xlink">
    <!-- Generator: Sketch 47.1 (45422) - http://www.bohemiancoding.com/sketch -->
    <title>shots icon</title>
    <desc>Created with Sketch.</desc>
    <defs></defs>
    <g id="Page-1" stroke="none" stroke-width="1" fill="none" fill-rule="evenodd">
        <g id="Authors--expanded" transform="translate(-457.000000, -868.000000)" fill="#000000">
            <g id="Group-9" transform="translate(262.000000, 280.000000)">
                <g id="Group" transform="translate(183.000000, 580.000000)">
                    <g id="shots-icon" transform="translate(12.000000, 9.000000)">
                        <rect id="Rectangle-126" x="0" y="2.57142857" width="15.4285714" height="15.4285714"></rect>
                        <rect id="Rectangle-126-Copy" stroke="#FFFFFF" stroke-width="2" x="2.57142857" y="0" width="15.4285714" height="15.4285714"></rect>
                    </g>
                </g>
            </g>
        </g>
    </g>
</svg>