<?xml version="1.0" encoding="UTF-8"?>
<svg width="15px" height="19px" viewBox="0 0 15 19" version="1.1" xmlns="http://www.w3.org/2000/svg" xmlns:xlink="http://www.w3.org/1999/xlink">
    <!-- Generator: Sketch 47.1 (45422) - http://www.bohemiancoding.com/sketch -->
    <title>Group 7</title>
    <desc>Created with Sketch.</desc>
    <defs></defs>
    <g id="Page-1" stroke="none" stroke-width="1" fill="none" fill-rule="evenodd">
        <g id="Stylesheet" transform="translate(-774.000000, -2046.000000)" fill="#000000">
            <g id="Group-19" transform="translate(119.000000, 1962.000000)">
                <g id="ICONS" transform="translate(54.000000, 74.000000)">
                    <g id="Group-7" transform="translate(601.000000, 10.000000)">
                        <g id="icon">
                            <path d="M0,0 L0,19 L10.3821689,19 L15,14.1125175 L15,0 L0,0 L0,0 Z M1.76470588,1.80952381 L13.2352941,1.80952381 L13.2352941,12.8848703 L9.21580253,12.8848703 L9.21580253,17.1904762 L1.76470588,17.1904762 L1.76470588,1.80952381 L1.76470588,1.80952381 Z M12.3529412,14.4761905 L10.5882353,16.2857143 L10.5882353,14.4761905 L12.3529412,14.4761905 L12.3529412,14.4761905 Z" id="Fill-1"></path>
                            <polygon id="Fill-2" points="4.61538462 4.75 11.5384615 4.75 11.5384615 7.125 4.61538462 7.125"></polygon>
                            <polygon id="Fill-3" points="4.61538462 9.5 9.23076923 9.5 9.23076923 11.875 4.61538462 11.875"></polygon>
                        </g>
                    </g>
                </g>
            </g>
        </g>
    </g>
</svg>
