<?xml version="1.0" encoding="UTF-8"?>
<svg width="14px" height="13px" viewBox="0 0 14 13" version="1.1" xmlns="http://www.w3.org/2000/svg" xmlns:xlink="http://www.w3.org/1999/xlink">
    <!-- Generator: Sketch 47.1 (45422) - http://www.bohemiancoding.com/sketch -->
    <title>Group</title>
    <desc>Created with Sketch.</desc>
    <defs></defs>
    <g id="Page-1" stroke="none" stroke-width="1" fill="none" fill-rule="evenodd">
        <g id="Profile" transform="translate(-1018.000000, -402.000000)" fill-rule="nonzero" fill="#4ECAB0">
            <g id="hjk" transform="translate(1018.000000, 402.000000)">
                <g id="Group">
                    <path d="M9.45063636,12.818975 L3.17068182,12.818975 C1.53013636,12.818975 0.195045455,11.4556 0.195045455,9.779575 L0.195045455,3.2201 C0.195045455,1.5444 1.52981818,0.1807 3.17068182,0.1807 L7.54154545,0.1807 C7.805,0.1807 8.01881818,0.3991 8.01881818,0.6682 C8.01881818,0.9373 7.805,1.1557 7.54154545,1.1557 L3.17068182,1.1557 C2.05640909,1.1557 1.14959091,2.08195 1.14959091,3.2201 L1.14959091,9.7799 C1.14959091,10.91805 2.05640909,11.8443 3.17068182,11.8443 L9.45063636,11.8443 C10.5649091,11.8443 11.4714091,10.91805 11.4714091,9.7799 L11.4714091,7.4451 C11.4714091,7.176 11.6852273,6.9576 11.9486818,6.9576 C12.2121364,6.9576 12.4259545,7.176 12.4259545,7.4451 L12.4259545,9.7799 C12.4259545,11.4556 11.0911818,12.818975 9.45063636,12.818975 Z" id="Shape"></path>
                    <path d="M4.7845,7.22215 C4.66231818,7.22215 4.54013636,7.1747 4.44690909,7.079475 C4.26045455,6.889025 4.26045455,6.5806 4.44690909,6.39015 L10.4802727,0.2275 C10.6667273,0.03705 10.9686818,0.03705 11.1551364,0.2275 C11.3415909,0.41795 11.3415909,0.726375 11.1551364,0.916825 L5.12209091,7.07915 C5.02886364,7.174375 4.90668182,7.22215 4.7845,7.22215 Z" id="Shape"></path>
                    <path d="M7.32995455,9.82215 C7.20777273,9.82215 7.08559091,9.7747 6.99236364,9.679475 C6.80590909,9.489025 6.80590909,9.1806 6.99236364,8.99015 L13.0257273,2.8275 C13.2121818,2.63705 13.5141364,2.63705 13.7005909,2.8275 C13.8870455,3.01795 13.8870455,3.326375 13.7005909,3.516825 L7.66754545,9.67915 C7.57431818,9.774375 7.45213636,9.82215 7.32995455,9.82215 Z" id="Shape"></path>
                    <path d="M7.32995455,9.82215 C7.20777273,9.82215 7.08559091,9.7747 6.99236364,9.679475 L4.44690909,7.079475 C4.26045455,6.889025 4.26045455,6.5806 4.44690909,6.39015 C4.63336364,6.1997 4.93531818,6.1997 5.12177273,6.39015 L7.66722727,8.99015 C7.85368182,9.1806 7.85368182,9.489025 7.66722727,9.679475 C7.57431818,9.774375 7.45213636,9.82215 7.32995455,9.82215 Z" id="Shape"></path>
                    <path d="M13.3633182,3.6595 C13.2411364,3.6595 13.1189545,3.61205 13.0257273,3.516825 L10.4802727,0.916825 C10.2938182,0.726375 10.2938182,0.41795 10.4802727,0.2275 C10.6667273,0.03705 10.9686818,0.03705 11.1551364,0.2275 L13.7005909,2.8275 C13.8870455,3.01795 13.8870455,3.326375 13.7005909,3.516825 C13.6076818,3.611725 13.4855,3.6595 13.3633182,3.6595 Z" id="Shape"></path>
                    <path d="M4.7845,9.82215 C4.52104545,9.82215 4.30722727,9.60375 4.30722727,9.33465 L4.30722727,6.73465 C4.30722727,6.46555 4.52104545,6.24715 4.7845,6.24715 C5.04795455,6.24715 5.26177273,6.46555 5.26177273,6.73465 L5.26177273,9.33465 C5.26177273,9.60375 5.04795455,9.82215 4.7845,9.82215 Z" id="Shape"></path>
                    <path d="M7.32995455,9.82215 L4.7845,9.82215 C4.52104545,9.82215 4.30722727,9.60375 4.30722727,9.33465 C4.30722727,9.06555 4.52104545,8.84715 4.7845,8.84715 L7.32995455,8.84715 C7.59340909,8.84715 7.80722727,9.06555 7.80722727,9.33465 C7.80722727,9.60375 7.59340909,9.82215 7.32995455,9.82215 Z" id="Shape"></path>
                </g>
            </g>
        </g>
    </g>
</svg>