<?xml version="1.0" encoding="UTF-8"?>
<svg width="22px" height="20px" viewBox="0 0 22 20" version="1.1" xmlns="http://www.w3.org/2000/svg" xmlns:xlink="http://www.w3.org/1999/xlink">
    <!-- Generator: Sketch 47.1 (45422) - http://www.bohemiancoding.com/sketch -->
    <title>Page 1 Copy 3</title>
    <desc>Created with Sketch.</desc>
    <defs></defs>
    <g id="Page-1" stroke="none" stroke-width="1" fill="none" fill-rule="evenodd">
        <g id="Stylesheet" transform="translate(-586.000000, -2045.000000)" fill="#000000">
            <g id="Group-19" transform="translate(119.000000, 1962.000000)">
                <g id="ICONS" transform="translate(54.000000, 74.000000)">
                    <path d="M432.875778,15.7652909 L427.994222,15.6956738 L428.444,12.0333168 C428.444,10.7976131 427.647111,9 426.395556,9 L425.063333,9 L424.383778,12.6872203 L421.306222,17.5355545 C420.978667,18.0004973 420.746444,18.388364 420.577778,18.7364495 C420.291778,18.4157136 419.876222,18.2118349 419.414222,18.2118349 L414.574222,18.2118349 C413.706444,18.2118349 413,18.9278966 413,19.810542 L413,27.3988066 C413,28.281452 413.706444,29 414.574222,29 L419.414222,29 C420.052222,29 420.602222,28.6096469 420.849111,28.0551964 C421.318444,28.5624068 421.983333,28.8831427 422.724,28.8831427 L430.732,28.8831427 C431.902889,28.8831427 432.856222,27.9134759 432.856222,26.7225261 C432.856222,26.4515167 432.809778,26.1929388 432.714444,25.9467926 C433.618889,25.6857285 434.261778,24.8354053 434.261778,23.8657384 C434.261778,23.5275982 434.181111,23.1919443 434.029556,22.891099 C434.630889,22.4908006 435,21.8095475 435,21.0785679 C435,20.4768772 434.755556,19.909995 434.325333,19.504724 C434.755556,19.0969667 435,18.5300845 435,17.9283938 C435,16.7349577 434.046667,15.7652909 432.875778,15.7652909 Z" id="Page-1-Copy-3"></path>
                </g>
            </g>
        </g>
    </g>
</svg>
