<?xml version="1.0" encoding="UTF-8"?>
<svg width="19px" height="19px" viewBox="0 0 19 19" version="1.1" xmlns="http://www.w3.org/2000/svg" xmlns:xlink="http://www.w3.org/1999/xlink">
    <!-- Generator: Sketch 47.1 (45422) - http://www.bohemiancoding.com/sketch -->
    <title>Group 6</title>
    <desc>Created with Sketch.</desc>
    <defs>
        <polygon id="path-1" points="0 19 0 0 19 0 19 19"></polygon>
    </defs>
    <g id="Page-1" stroke="none" stroke-width="1" fill="none" fill-rule="evenodd">
        <g id="Stylesheet" transform="translate(-714.000000, -2046.000000)">
            <g id="Group-19" transform="translate(119.000000, 1962.000000)">
                <g id="ICONS" transform="translate(54.000000, 74.000000)">
                    <g id="Group-6" transform="translate(541.000000, 10.000000)">
                        <g id="Page-1">
                            <mask id="mask-2" fill="white">
                                <use xlink:href="#path-1"></use>
                            </mask>
                            <g id="Clip-2"></g>
                            <path d="M12.8251245,7.05024111 L12.7873037,13.02852 C12.7862231,13.9880991 11.3468716,13.9895399 11.3483124,13.0299608 L11.3540756,9.02018791 C11.3540756,8.82315721 11.2413336,8.7756105 11.101937,8.91500882 L1.22890792,18.7885162 C0.94651263,19.0705546 0.491942668,19.0701944 0.210988175,18.7892366 C-0.0717673087,18.5064777 -0.0692459223,18.0529829 0.212068769,17.7716648 L10.085458,7.89851771 C10.2255751,7.75803878 10.1776687,7.64601584 9.98028018,7.64637605 L5.97055528,7.65213929 C5.01062743,7.65321989 5.01206822,6.2142114 5.97199608,6.21313079 L11.9271507,6.15946064 C12.4274659,6.15477801 12.8283663,6.55352204 12.8251245,7.05024111 M9.63485023,18.7305236 C9.23719156,18.7305236 8.91445409,18.4081424 8.91445409,18.0101188 C8.91445409,17.6124554 9.23719156,17.2897141 9.63485023,17.2897141 C14.011617,17.2897141 17.5592077,13.7420809 17.5592077,9.36526179 C17.5592077,4.98880291 14.011617,1.44080951 9.63485023,1.44080951 C5.2584437,1.44080951 1.71049273,4.98880291 1.71049273,9.36526179 C1.71049273,9.76328541 1.38811546,10.0856665 0.990096596,10.0856665 C0.592437929,10.0856665 0.26970046,9.76328541 0.26970046,9.36526179 C0.26970046,4.19311586 4.46276617,0 9.63485023,0 C14.8072945,0 19,4.19311586 19,9.36526179 C19,14.5377679 14.8072945,18.7305236 9.63485023,18.7305236" id="Fill-1" fill="#000000" mask="url(#mask-2)"></path>
                        </g>
                    </g>
                </g>
            </g>
        </g>
    </g>
</svg>
